<?xml version="1.0" encoding="UTF-8"?>
<session version="1.0">
<refactoring comment="Rename type &apos;ecc.nextHighestPalindrome&apos; to &apos;generatingUptoPalindrome&apos;&#x0A;- Original project: &apos;ECC&apos;&#x0A;- Original element: &apos;ecc.nextHighestPalindrome&apos;&#x0A;- Renamed element: &apos;ecc.generatingUptoPalindrome&apos;&#x0A;- Update references to refactored element&#x0A;- Update textual occurrences in comments and strings" description="Rename type &apos;nextHighestPalindrome&apos;" flags="589830" id="org.eclipse.jdt.ui.rename.type" input="/src&lt;ecc{nextHighestPalindrome.java[nextHighestPalindrome" matchStrategy="1" name="generatingUptoPalindrome" qualified="false" references="true" similarDeclarations="false" stamp="1561099679661" textual="false" version="1.0"/>
</session>